﻿{
  "Properties": {
    "AdministratedByColumns": "False",
    "AdministratedByOperations": "False",
    "AdministratedByRecords": "False",
    "CreatedInVersion": "7.14.1.935",
    "IsSSPAvailable": "False",
    "IsTrackChangesInDB": "False",
    "IsVirtual": "False"
  }
}